^C:\USERS\RÉMY\DAE\GRAPHICS PROGRAMMING 2\OVERLORD\GP2_W4_STUDENTS_REVISED\OVERLORDPROJECT\COURSEOBJECTS\SOURCE\AMMO.CPP
/c /I../OverlordEngine/ /Zi /nologo /W4 /WX- /O2 /Oi /Oy- /GL /D WIN32 /D NDEBUG /D _WINDOWS /D _UNICODE /D UNICODE /Gm- /EHsc /MD /GS /Gy /fp:precise /Zc:wchar_t /Zc:forScope /Fo"RELEASE\\" /Fd"RELEASE\VC120.PDB" /Gd /TP /analyze- C:\USERS\RÉMY\DAE\GRAPHICS PROGRAMMING 2\OVERLORD\GP2_W4_STUDENTS_REVISED\OVERLORDPROJECT\COURSEOBJECTS\SOURCE\AMMO.CPP
^C:\USERS\RÉMY\DAE\GRAPHICS PROGRAMMING 2\OVERLORD\GP2_W4_STUDENTS_REVISED\OVERLORDPROJECT\COURSEOBJECTS\SOURCE\RACECHARACTER.CPP
/c /I../OverlordEngine/ /Zi /nologo /W4 /WX- /O2 /Oi /Oy- /GL /D WIN32 /D NDEBUG /D _WINDOWS /D _UNICODE /D UNICODE /Gm- /EHsc /MD /GS /Gy /fp:precise /Zc:wchar_t /Zc:forScope /Fo"RELEASE\\" /Fd"RELEASE\VC120.PDB" /Gd /TP /analyze- C:\USERS\RÉMY\DAE\GRAPHICS PROGRAMMING 2\OVERLORD\GP2_W4_STUDENTS_REVISED\OVERLORDPROJECT\COURSEOBJECTS\SOURCE\RACECHARACTER.CPP
^C:\USERS\RÉMY\DAE\GRAPHICS PROGRAMMING 2\OVERLORD\GP2_W4_STUDENTS_REVISED\OVERLORDPROJECT\COURSEOBJECTS\SOURCE\RACESCENE.CPP
/c /I../OverlordEngine/ /Zi /nologo /W4 /WX- /O2 /Oi /Oy- /GL /D WIN32 /D NDEBUG /D _WINDOWS /D _UNICODE /D UNICODE /Gm- /EHsc /MD /GS /Gy /fp:precise /Zc:wchar_t /Zc:forScope /Fo"RELEASE\\" /Fd"RELEASE\VC120.PDB" /Gd /TP /analyze- C:\USERS\RÉMY\DAE\GRAPHICS PROGRAMMING 2\OVERLORD\GP2_W4_STUDENTS_REVISED\OVERLORDPROJECT\COURSEOBJECTS\SOURCE\RACESCENE.CPP
^C:\USERS\RÉMY\DAE\GRAPHICS PROGRAMMING 2\OVERLORD\GP2_W4_STUDENTS_REVISED\OVERLORDPROJECT\COURSEOBJECTS\WEEK 10\PARTICLESCENE.CPP
/c /I../OverlordEngine/ /Zi /nologo /W4 /WX- /O2 /Oi /Oy- /GL /D WIN32 /D NDEBUG /D _WINDOWS /D _UNICODE /D UNICODE /Gm- /EHsc /MD /GS /Gy /fp:precise /Zc:wchar_t /Zc:forScope /Fo"RELEASE\\" /Fd"RELEASE\VC120.PDB" /Gd /TP /analyze- C:\USERS\RÉMY\DAE\GRAPHICS PROGRAMMING 2\OVERLORD\GP2_W4_STUDENTS_REVISED\OVERLORDPROJECT\COURSEOBJECTS\WEEK 10\PARTICLESCENE.CPP
^C:\USERS\RÉMY\DAE\GRAPHICS PROGRAMMING 2\OVERLORD\GP2_W4_STUDENTS_REVISED\OVERLORDPROJECT\COURSEOBJECTS\WEEK 11\SKYBOXSCENE.CPP
/c /I../OverlordEngine/ /Zi /nologo /W4 /WX- /O2 /Oi /Oy- /GL /D WIN32 /D NDEBUG /D _WINDOWS /D _UNICODE /D UNICODE /Gm- /EHsc /MD /GS /Gy /fp:precise /Zc:wchar_t /Zc:forScope /Fo"RELEASE\\" /Fd"RELEASE\VC120.PDB" /Gd /TP /analyze- C:\USERS\RÉMY\DAE\GRAPHICS PROGRAMMING 2\OVERLORD\GP2_W4_STUDENTS_REVISED\OVERLORDPROJECT\COURSEOBJECTS\WEEK 11\SKYBOXSCENE.CPP
^C:\USERS\RÉMY\DAE\GRAPHICS PROGRAMMING 2\OVERLORD\GP2_W4_STUDENTS_REVISED\OVERLORDPROJECT\COURSEOBJECTS\WEEK 4\CHARACTER.CPP
/c /I../OverlordEngine/ /Zi /nologo /W4 /WX- /O2 /Oi /Oy- /GL /D WIN32 /D NDEBUG /D _WINDOWS /D _UNICODE /D UNICODE /Gm- /EHsc /MD /GS /Gy /fp:precise /Zc:wchar_t /Zc:forScope /Fo"RELEASE\\" /Fd"RELEASE\VC120.PDB" /Gd /TP /analyze- C:\USERS\RÉMY\DAE\GRAPHICS PROGRAMMING 2\OVERLORD\GP2_W4_STUDENTS_REVISED\OVERLORDPROJECT\COURSEOBJECTS\WEEK 4\CHARACTER.CPP
^C:\USERS\RÉMY\DAE\GRAPHICS PROGRAMMING 2\OVERLORD\GP2_W4_STUDENTS_REVISED\OVERLORDPROJECT\COURSEOBJECTS\WEEK 3\PONG\BALL.CPP
/c /I../OverlordEngine/ /Zi /nologo /W4 /WX- /O2 /Oi /Oy- /GL /D WIN32 /D NDEBUG /D _WINDOWS /D _UNICODE /D UNICODE /Gm- /EHsc /MD /GS /Gy /fp:precise /Zc:wchar_t /Zc:forScope /Fo"RELEASE\\" /Fd"RELEASE\VC120.PDB" /Gd /TP /analyze- C:\USERS\RÉMY\DAE\GRAPHICS PROGRAMMING 2\OVERLORD\GP2_W4_STUDENTS_REVISED\OVERLORDPROJECT\COURSEOBJECTS\WEEK 3\PONG\BALL.CPP
^C:\USERS\RÉMY\DAE\GRAPHICS PROGRAMMING 2\OVERLORD\GP2_W4_STUDENTS_REVISED\OVERLORDPROJECT\COURSEOBJECTS\WEEK 3\PONG\PEDDLE.CPP
/c /I../OverlordEngine/ /Zi /nologo /W4 /WX- /O2 /Oi /Oy- /GL /D WIN32 /D NDEBUG /D _WINDOWS /D _UNICODE /D UNICODE /Gm- /EHsc /MD /GS /Gy /fp:precise /Zc:wchar_t /Zc:forScope /Fo"RELEASE\\" /Fd"RELEASE\VC120.PDB" /Gd /TP /analyze- C:\USERS\RÉMY\DAE\GRAPHICS PROGRAMMING 2\OVERLORD\GP2_W4_STUDENTS_REVISED\OVERLORDPROJECT\COURSEOBJECTS\WEEK 3\PONG\PEDDLE.CPP
^C:\USERS\RÉMY\DAE\GRAPHICS PROGRAMMING 2\OVERLORD\GP2_W4_STUDENTS_REVISED\OVERLORDPROJECT\COURSEOBJECTS\WEEK 3\PONG\PONGSCENE.CPP
/c /I../OverlordEngine/ /Zi /nologo /W4 /WX- /O2 /Oi /Oy- /GL /D WIN32 /D NDEBUG /D _WINDOWS /D _UNICODE /D UNICODE /Gm- /EHsc /MD /GS /Gy /fp:precise /Zc:wchar_t /Zc:forScope /Fo"RELEASE\\" /Fd"RELEASE\VC120.PDB" /Gd /TP /analyze- C:\USERS\RÉMY\DAE\GRAPHICS PROGRAMMING 2\OVERLORD\GP2_W4_STUDENTS_REVISED\OVERLORDPROJECT\COURSEOBJECTS\WEEK 3\PONG\PONGSCENE.CPP
^C:\USERS\RÉMY\DAE\GRAPHICS PROGRAMMING 2\OVERLORD\GP2_W4_STUDENTS_REVISED\OVERLORDPROJECT\COURSEOBJECTS\WEEK 4\CHARACTERTEST.CPP
/c /I../OverlordEngine/ /Zi /nologo /W4 /WX- /O2 /Oi /Oy- /GL /D WIN32 /D NDEBUG /D _WINDOWS /D _UNICODE /D UNICODE /Gm- /EHsc /MD /GS /Gy /fp:precise /Zc:wchar_t /Zc:forScope /Fo"RELEASE\\" /Fd"RELEASE\VC120.PDB" /Gd /TP /analyze- C:\USERS\RÉMY\DAE\GRAPHICS PROGRAMMING 2\OVERLORD\GP2_W4_STUDENTS_REVISED\OVERLORDPROJECT\COURSEOBJECTS\WEEK 4\CHARACTERTEST.CPP
^C:\USERS\RÉMY\DAE\GRAPHICS PROGRAMMING 2\OVERLORD\GP2_W4_STUDENTS_REVISED\OVERLORDPROJECT\COURSEOBJECTS\WEEK 5\SPIKEYSCENE.CPP
/c /I../OverlordEngine/ /Zi /nologo /W4 /WX- /O2 /Oi /Oy- /GL /D WIN32 /D NDEBUG /D _WINDOWS /D _UNICODE /D UNICODE /Gm- /EHsc /MD /GS /Gy /fp:precise /Zc:wchar_t /Zc:forScope /Fo"RELEASE\\" /Fd"RELEASE\VC120.PDB" /Gd /TP /analyze- C:\USERS\RÉMY\DAE\GRAPHICS PROGRAMMING 2\OVERLORD\GP2_W4_STUDENTS_REVISED\OVERLORDPROJECT\COURSEOBJECTS\WEEK 5\SPIKEYSCENE.CPP
^C:\USERS\RÉMY\DAE\GRAPHICS PROGRAMMING 2\OVERLORD\GP2_W4_STUDENTS_REVISED\OVERLORDPROJECT\COURSEOBJECTS\WEEK 5\SPRITETESTSCENE.CPP
/c /I../OverlordEngine/ /Zi /nologo /W4 /WX- /O2 /Oi /Oy- /GL /D WIN32 /D NDEBUG /D _WINDOWS /D _UNICODE /D UNICODE /Gm- /EHsc /MD /GS /Gy /fp:precise /Zc:wchar_t /Zc:forScope /Fo"RELEASE\\" /Fd"RELEASE\VC120.PDB" /Gd /TP /analyze- C:\USERS\RÉMY\DAE\GRAPHICS PROGRAMMING 2\OVERLORD\GP2_W4_STUDENTS_REVISED\OVERLORDPROJECT\COURSEOBJECTS\WEEK 5\SPRITETESTSCENE.CPP
^C:\USERS\RÉMY\DAE\GRAPHICS PROGRAMMING 2\OVERLORD\GP2_W4_STUDENTS_REVISED\OVERLORDPROJECT\COURSEOBJECTS\WEEK 5\UBERSCENE.CPP
/c /I../OverlordEngine/ /Zi /nologo /W4 /WX- /O2 /Oi /Oy- /GL /D WIN32 /D NDEBUG /D _WINDOWS /D _UNICODE /D UNICODE /Gm- /EHsc /MD /GS /Gy /fp:precise /Zc:wchar_t /Zc:forScope /Fo"RELEASE\\" /Fd"RELEASE\VC120.PDB" /Gd /TP /analyze- C:\USERS\RÉMY\DAE\GRAPHICS PROGRAMMING 2\OVERLORD\GP2_W4_STUDENTS_REVISED\OVERLORDPROJECT\COURSEOBJECTS\WEEK 5\UBERSCENE.CPP
^C:\USERS\RÉMY\DAE\GRAPHICS PROGRAMMING 2\OVERLORD\GP2_W4_STUDENTS_REVISED\OVERLORDPROJECT\COURSEOBJECTS\WEEK 6\PICKSCENE.CPP
/c /I../OverlordEngine/ /Zi /nologo /W4 /WX- /O2 /Oi /Oy- /GL /D WIN32 /D NDEBUG /D _WINDOWS /D _UNICODE /D UNICODE /Gm- /EHsc /MD /GS /Gy /fp:precise /Zc:wchar_t /Zc:forScope /Fo"RELEASE\\" /Fd"RELEASE\VC120.PDB" /Gd /TP /analyze- C:\USERS\RÉMY\DAE\GRAPHICS PROGRAMMING 2\OVERLORD\GP2_W4_STUDENTS_REVISED\OVERLORDPROJECT\COURSEOBJECTS\WEEK 6\PICKSCENE.CPP
^C:\USERS\RÉMY\DAE\GRAPHICS PROGRAMMING 2\OVERLORD\GP2_W4_STUDENTS_REVISED\OVERLORDPROJECT\COURSEOBJECTS\WEEK 6\SPRITEFONTTESTSCENE.CPP
/c /I../OverlordEngine/ /Zi /nologo /W4 /WX- /O2 /Oi /Oy- /GL /D WIN32 /D NDEBUG /D _WINDOWS /D _UNICODE /D UNICODE /Gm- /EHsc /MD /GS /Gy /fp:precise /Zc:wchar_t /Zc:forScope /Fo"RELEASE\\" /Fd"RELEASE\VC120.PDB" /Gd /TP /analyze- C:\USERS\RÉMY\DAE\GRAPHICS PROGRAMMING 2\OVERLORD\GP2_W4_STUDENTS_REVISED\OVERLORDPROJECT\COURSEOBJECTS\WEEK 6\SPRITEFONTTESTSCENE.CPP
^C:\USERS\RÉMY\DAE\GRAPHICS PROGRAMMING 2\OVERLORD\GP2_W4_STUDENTS_REVISED\OVERLORDPROJECT\COURSEOBJECTS\WEEK 7\SOFTWARESKINSCENE_1.CPP
/c /I../OverlordEngine/ /Zi /nologo /W4 /WX- /O2 /Oi /Oy- /GL /D WIN32 /D NDEBUG /D _WINDOWS /D _UNICODE /D UNICODE /Gm- /EHsc /MD /GS /Gy /fp:precise /Zc:wchar_t /Zc:forScope /Fo"RELEASE\\" /Fd"RELEASE\VC120.PDB" /Gd /TP /analyze- C:\USERS\RÉMY\DAE\GRAPHICS PROGRAMMING 2\OVERLORD\GP2_W4_STUDENTS_REVISED\OVERLORDPROJECT\COURSEOBJECTS\WEEK 7\SOFTWARESKINSCENE_1.CPP
^C:\USERS\RÉMY\DAE\GRAPHICS PROGRAMMING 2\OVERLORD\GP2_W4_STUDENTS_REVISED\OVERLORDPROJECT\COURSEOBJECTS\WEEK 7\SOFTWARESKINSCENE_2.CPP
/c /I../OverlordEngine/ /Zi /nologo /W4 /WX- /O2 /Oi /Oy- /GL /D WIN32 /D NDEBUG /D _WINDOWS /D _UNICODE /D UNICODE /Gm- /EHsc /MD /GS /Gy /fp:precise /Zc:wchar_t /Zc:forScope /Fo"RELEASE\\" /Fd"RELEASE\VC120.PDB" /Gd /TP /analyze- C:\USERS\RÉMY\DAE\GRAPHICS PROGRAMMING 2\OVERLORD\GP2_W4_STUDENTS_REVISED\OVERLORDPROJECT\COURSEOBJECTS\WEEK 7\SOFTWARESKINSCENE_2.CPP
^C:\USERS\RÉMY\DAE\GRAPHICS PROGRAMMING 2\OVERLORD\GP2_W4_STUDENTS_REVISED\OVERLORDPROJECT\COURSEOBJECTS\WEEK 7\SOFTWARESKINSCENE_3.CPP
/c /I../OverlordEngine/ /Zi /nologo /W4 /WX- /O2 /Oi /Oy- /GL /D WIN32 /D NDEBUG /D _WINDOWS /D _UNICODE /D UNICODE /Gm- /EHsc /MD /GS /Gy /fp:precise /Zc:wchar_t /Zc:forScope /Fo"RELEASE\\" /Fd"RELEASE\VC120.PDB" /Gd /TP /analyze- C:\USERS\RÉMY\DAE\GRAPHICS PROGRAMMING 2\OVERLORD\GP2_W4_STUDENTS_REVISED\OVERLORDPROJECT\COURSEOBJECTS\WEEK 7\SOFTWARESKINSCENE_3.CPP
^C:\USERS\RÉMY\DAE\GRAPHICS PROGRAMMING 2\OVERLORD\GP2_W4_STUDENTS_REVISED\OVERLORDPROJECT\COURSEOBJECTS\WEEK 8\HARDWARESKINNINGSCENE.CPP
/c /I../OverlordEngine/ /Zi /nologo /W4 /WX- /O2 /Oi /Oy- /GL /D WIN32 /D NDEBUG /D _WINDOWS /D _UNICODE /D UNICODE /Gm- /EHsc /MD /GS /Gy /fp:precise /Zc:wchar_t /Zc:forScope /Fo"RELEASE\\" /Fd"RELEASE\VC120.PDB" /Gd /TP /analyze- C:\USERS\RÉMY\DAE\GRAPHICS PROGRAMMING 2\OVERLORD\GP2_W4_STUDENTS_REVISED\OVERLORDPROJECT\COURSEOBJECTS\WEEK 8\HARDWARESKINNINGSCENE.CPP
^C:\USERS\RÉMY\DAE\GRAPHICS PROGRAMMING 2\OVERLORD\GP2_W4_STUDENTS_REVISED\OVERLORDPROJECT\COURSEOBJECTS\WEEK 9\POSTPROCESSINGSCENE.CPP
/c /I../OverlordEngine/ /Zi /nologo /W4 /WX- /O2 /Oi /Oy- /GL /D WIN32 /D NDEBUG /D _WINDOWS /D _UNICODE /D UNICODE /Gm- /EHsc /MD /GS /Gy /fp:precise /Zc:wchar_t /Zc:forScope /Fo"RELEASE\\" /Fd"RELEASE\VC120.PDB" /Gd /TP /analyze- C:\USERS\RÉMY\DAE\GRAPHICS PROGRAMMING 2\OVERLORD\GP2_W4_STUDENTS_REVISED\OVERLORDPROJECT\COURSEOBJECTS\WEEK 9\POSTPROCESSINGSCENE.CPP
^C:\USERS\RÉMY\DAE\GRAPHICS PROGRAMMING 2\OVERLORD\GP2_W4_STUDENTS_REVISED\OVERLORDPROJECT\MAIN.CPP
/c /I../OverlordEngine/ /Zi /nologo /W4 /WX- /O2 /Oi /Oy- /GL /D WIN32 /D NDEBUG /D _WINDOWS /D _UNICODE /D UNICODE /Gm- /EHsc /MD /GS /Gy /fp:precise /Zc:wchar_t /Zc:forScope /Fo"RELEASE\\" /Fd"RELEASE\VC120.PDB" /Gd /TP /analyze- C:\USERS\RÉMY\DAE\GRAPHICS PROGRAMMING 2\OVERLORD\GP2_W4_STUDENTS_REVISED\OVERLORDPROJECT\MAIN.CPP
^C:\USERS\RÉMY\DAE\GRAPHICS PROGRAMMING 2\OVERLORD\GP2_W4_STUDENTS_REVISED\OVERLORDPROJECT\MATERIALS\BACKGROUNDMATERIAL.CPP
/c /I../OverlordEngine/ /Zi /nologo /W4 /WX- /O2 /Oi /Oy- /GL /D WIN32 /D NDEBUG /D _WINDOWS /D _UNICODE /D UNICODE /Gm- /EHsc /MD /GS /Gy /fp:precise /Zc:wchar_t /Zc:forScope /Fo"RELEASE\\" /Fd"RELEASE\VC120.PDB" /Gd /TP /analyze- C:\USERS\RÉMY\DAE\GRAPHICS PROGRAMMING 2\OVERLORD\GP2_W4_STUDENTS_REVISED\OVERLORDPROJECT\MATERIALS\BACKGROUNDMATERIAL.CPP
^C:\USERS\RÉMY\DAE\GRAPHICS PROGRAMMING 2\OVERLORD\GP2_W4_STUDENTS_REVISED\OVERLORDPROJECT\MATERIALS\COLORMATERIAL.CPP
/c /I../OverlordEngine/ /Zi /nologo /W4 /WX- /O2 /Oi /Oy- /GL /D WIN32 /D NDEBUG /D _WINDOWS /D _UNICODE /D UNICODE /Gm- /EHsc /MD /GS /Gy /fp:precise /Zc:wchar_t /Zc:forScope /Fo"RELEASE\\" /Fd"RELEASE\VC120.PDB" /Gd /TP /analyze- C:\USERS\RÉMY\DAE\GRAPHICS PROGRAMMING 2\OVERLORD\GP2_W4_STUDENTS_REVISED\OVERLORDPROJECT\MATERIALS\COLORMATERIAL.CPP
^C:\USERS\RÉMY\DAE\GRAPHICS PROGRAMMING 2\OVERLORD\GP2_W4_STUDENTS_REVISED\OVERLORDPROJECT\COURSEOBJECTS\WEEK 4\MODELTESTSCENE.CPP
/c /I../OverlordEngine/ /Zi /nologo /W4 /WX- /O2 /Oi /Oy- /GL /D WIN32 /D NDEBUG /D _WINDOWS /D _UNICODE /D UNICODE /Gm- /EHsc /MD /GS /Gy /fp:precise /Zc:wchar_t /Zc:forScope /Fo"RELEASE\\" /Fd"RELEASE\VC120.PDB" /Gd /TP /analyze- C:\USERS\RÉMY\DAE\GRAPHICS PROGRAMMING 2\OVERLORD\GP2_W4_STUDENTS_REVISED\OVERLORDPROJECT\COURSEOBJECTS\WEEK 4\MODELTESTSCENE.CPP
^C:\USERS\RÉMY\DAE\GRAPHICS PROGRAMMING 2\OVERLORD\GP2_W4_STUDENTS_REVISED\OVERLORDPROJECT\COURSEOBJECTS\WEEK 3\PONG\WALL.CPP
/c /I../OverlordEngine/ /Zi /nologo /W4 /WX- /O2 /Oi /Oy- /GL /D WIN32 /D NDEBUG /D _WINDOWS /D _UNICODE /D UNICODE /Gm- /EHsc /MD /GS /Gy /fp:precise /Zc:wchar_t /Zc:forScope /Fo"RELEASE\\" /Fd"RELEASE\VC120.PDB" /Gd /TP /analyze- C:\USERS\RÉMY\DAE\GRAPHICS PROGRAMMING 2\OVERLORD\GP2_W4_STUDENTS_REVISED\OVERLORDPROJECT\COURSEOBJECTS\WEEK 3\PONG\WALL.CPP
^C:\USERS\RÉMY\DAE\GRAPHICS PROGRAMMING 2\OVERLORD\GP2_W4_STUDENTS_REVISED\OVERLORDPROJECT\COURSEOBJECTS\WEEK 3\TUTORIALSCENE.CPP
/c /I../OverlordEngine/ /Zi /nologo /W4 /WX- /O2 /Oi /Oy- /GL /D WIN32 /D NDEBUG /D _WINDOWS /D _UNICODE /D UNICODE /Gm- /EHsc /MD /GS /Gy /fp:precise /Zc:wchar_t /Zc:forScope /Fo"RELEASE\\" /Fd"RELEASE\VC120.PDB" /Gd /TP /analyze- C:\USERS\RÉMY\DAE\GRAPHICS PROGRAMMING 2\OVERLORD\GP2_W4_STUDENTS_REVISED\OVERLORDPROJECT\COURSEOBJECTS\WEEK 3\TUTORIALSCENE.CPP
^C:\USERS\RÉMY\DAE\GRAPHICS PROGRAMMING 2\OVERLORD\GP2_W4_STUDENTS_REVISED\OVERLORDPROJECT\MATERIALS\CUBETERRAINMATERIAL.CPP
/c /I../OverlordEngine/ /Zi /nologo /W4 /WX- /O2 /Oi /Oy- /GL /D WIN32 /D NDEBUG /D _WINDOWS /D _UNICODE /D UNICODE /Gm- /EHsc /MD /GS /Gy /fp:precise /Zc:wchar_t /Zc:forScope /Fo"RELEASE\\" /Fd"RELEASE\VC120.PDB" /Gd /TP /analyze- C:\USERS\RÉMY\DAE\GRAPHICS PROGRAMMING 2\OVERLORD\GP2_W4_STUDENTS_REVISED\OVERLORDPROJECT\MATERIALS\CUBETERRAINMATERIAL.CPP
^C:\USERS\RÉMY\DAE\GRAPHICS PROGRAMMING 2\OVERLORD\GP2_W4_STUDENTS_REVISED\OVERLORDPROJECT\MATERIALS\DIFFUSEMATERIAL.CPP
/c /I../OverlordEngine/ /Zi /nologo /W4 /WX- /O2 /Oi /Oy- /GL /D WIN32 /D NDEBUG /D _WINDOWS /D _UNICODE /D UNICODE /Gm- /EHsc /MD /GS /Gy /fp:precise /Zc:wchar_t /Zc:forScope /Fo"RELEASE\\" /Fd"RELEASE\VC120.PDB" /Gd /TP /analyze- C:\USERS\RÉMY\DAE\GRAPHICS PROGRAMMING 2\OVERLORD\GP2_W4_STUDENTS_REVISED\OVERLORDPROJECT\MATERIALS\DIFFUSEMATERIAL.CPP
^C:\USERS\RÉMY\DAE\GRAPHICS PROGRAMMING 2\OVERLORD\GP2_W4_STUDENTS_REVISED\OVERLORDPROJECT\MATERIALS\POSTBLUR.CPP
/c /I../OverlordEngine/ /Zi /nologo /W4 /WX- /O2 /Oi /Oy- /GL /D WIN32 /D NDEBUG /D _WINDOWS /D _UNICODE /D UNICODE /Gm- /EHsc /MD /GS /Gy /fp:precise /Zc:wchar_t /Zc:forScope /Fo"RELEASE\\" /Fd"RELEASE\VC120.PDB" /Gd /TP /analyze- C:\USERS\RÉMY\DAE\GRAPHICS PROGRAMMING 2\OVERLORD\GP2_W4_STUDENTS_REVISED\OVERLORDPROJECT\MATERIALS\POSTBLUR.CPP
^C:\USERS\RÉMY\DAE\GRAPHICS PROGRAMMING 2\OVERLORD\GP2_W4_STUDENTS_REVISED\OVERLORDPROJECT\MATERIALS\POSTDEPTH.CPP
/c /I../OverlordEngine/ /Zi /nologo /W4 /WX- /O2 /Oi /Oy- /GL /D WIN32 /D NDEBUG /D _WINDOWS /D _UNICODE /D UNICODE /Gm- /EHsc /MD /GS /Gy /fp:precise /Zc:wchar_t /Zc:forScope /Fo"RELEASE\\" /Fd"RELEASE\VC120.PDB" /Gd /TP /analyze- C:\USERS\RÉMY\DAE\GRAPHICS PROGRAMMING 2\OVERLORD\GP2_W4_STUDENTS_REVISED\OVERLORDPROJECT\MATERIALS\POSTDEPTH.CPP
^C:\USERS\RÉMY\DAE\GRAPHICS PROGRAMMING 2\OVERLORD\GP2_W4_STUDENTS_REVISED\OVERLORDPROJECT\MATERIALS\POSTFOG.CPP
/c /I../OverlordEngine/ /Zi /nologo /W4 /WX- /O2 /Oi /Oy- /GL /D WIN32 /D NDEBUG /D _WINDOWS /D _UNICODE /D UNICODE /Gm- /EHsc /MD /GS /Gy /fp:precise /Zc:wchar_t /Zc:forScope /Fo"RELEASE\\" /Fd"RELEASE\VC120.PDB" /Gd /TP /analyze- C:\USERS\RÉMY\DAE\GRAPHICS PROGRAMMING 2\OVERLORD\GP2_W4_STUDENTS_REVISED\OVERLORDPROJECT\MATERIALS\POSTFOG.CPP
^C:\USERS\RÉMY\DAE\GRAPHICS PROGRAMMING 2\OVERLORD\GP2_W4_STUDENTS_REVISED\OVERLORDPROJECT\MATERIALS\POSTGRAYSCALE.CPP
/c /I../OverlordEngine/ /Zi /nologo /W4 /WX- /O2 /Oi /Oy- /GL /D WIN32 /D NDEBUG /D _WINDOWS /D _UNICODE /D UNICODE /Gm- /EHsc /MD /GS /Gy /fp:precise /Zc:wchar_t /Zc:forScope /Fo"RELEASE\\" /Fd"RELEASE\VC120.PDB" /Gd /TP /analyze- C:\USERS\RÉMY\DAE\GRAPHICS PROGRAMMING 2\OVERLORD\GP2_W4_STUDENTS_REVISED\OVERLORDPROJECT\MATERIALS\POSTGRAYSCALE.CPP
^C:\USERS\RÉMY\DAE\GRAPHICS PROGRAMMING 2\OVERLORD\GP2_W4_STUDENTS_REVISED\OVERLORDPROJECT\MATERIALS\POSTRADIALBLUR.CPP
/c /I../OverlordEngine/ /Zi /nologo /W4 /WX- /O2 /Oi /Oy- /GL /D WIN32 /D NDEBUG /D _WINDOWS /D _UNICODE /D UNICODE /Gm- /EHsc /MD /GS /Gy /fp:precise /Zc:wchar_t /Zc:forScope /Fo"RELEASE\\" /Fd"RELEASE\VC120.PDB" /Gd /TP /analyze- C:\USERS\RÉMY\DAE\GRAPHICS PROGRAMMING 2\OVERLORD\GP2_W4_STUDENTS_REVISED\OVERLORDPROJECT\MATERIALS\POSTRADIALBLUR.CPP
^C:\USERS\RÉMY\DAE\GRAPHICS PROGRAMMING 2\OVERLORD\GP2_W4_STUDENTS_REVISED\OVERLORDPROJECT\MATERIALS\SKINNEDDIFFUSEMATERIAL.CPP
/c /I../OverlordEngine/ /Zi /nologo /W4 /WX- /O2 /Oi /Oy- /GL /D WIN32 /D NDEBUG /D _WINDOWS /D _UNICODE /D UNICODE /Gm- /EHsc /MD /GS /Gy /fp:precise /Zc:wchar_t /Zc:forScope /Fo"RELEASE\\" /Fd"RELEASE\VC120.PDB" /Gd /TP /analyze- C:\USERS\RÉMY\DAE\GRAPHICS PROGRAMMING 2\OVERLORD\GP2_W4_STUDENTS_REVISED\OVERLORDPROJECT\MATERIALS\SKINNEDDIFFUSEMATERIAL.CPP
^C:\USERS\RÉMY\DAE\GRAPHICS PROGRAMMING 2\OVERLORD\GP2_W4_STUDENTS_REVISED\OVERLORDPROJECT\MATERIALS\SKYBOXMATERIAL.CPP
/c /I../OverlordEngine/ /Zi /nologo /W4 /WX- /O2 /Oi /Oy- /GL /D WIN32 /D NDEBUG /D _WINDOWS /D _UNICODE /D UNICODE /Gm- /EHsc /MD /GS /Gy /fp:precise /Zc:wchar_t /Zc:forScope /Fo"RELEASE\\" /Fd"RELEASE\VC120.PDB" /Gd /TP /analyze- C:\USERS\RÉMY\DAE\GRAPHICS PROGRAMMING 2\OVERLORD\GP2_W4_STUDENTS_REVISED\OVERLORDPROJECT\MATERIALS\SKYBOXMATERIAL.CPP
^C:\USERS\RÉMY\DAE\GRAPHICS PROGRAMMING 2\OVERLORD\GP2_W4_STUDENTS_REVISED\OVERLORDPROJECT\MATERIALS\SPIKEYMATERIAL.CPP
/c /I../OverlordEngine/ /Zi /nologo /W4 /WX- /O2 /Oi /Oy- /GL /D WIN32 /D NDEBUG /D _WINDOWS /D _UNICODE /D UNICODE /Gm- /EHsc /MD /GS /Gy /fp:precise /Zc:wchar_t /Zc:forScope /Fo"RELEASE\\" /Fd"RELEASE\VC120.PDB" /Gd /TP /analyze- C:\USERS\RÉMY\DAE\GRAPHICS PROGRAMMING 2\OVERLORD\GP2_W4_STUDENTS_REVISED\OVERLORDPROJECT\MATERIALS\SPIKEYMATERIAL.CPP
^C:\USERS\RÉMY\DAE\GRAPHICS PROGRAMMING 2\OVERLORD\GP2_W4_STUDENTS_REVISED\OVERLORDPROJECT\MATERIALS\UBERMATERIAL.CPP
/c /I../OverlordEngine/ /Zi /nologo /W4 /WX- /O2 /Oi /Oy- /GL /D WIN32 /D NDEBUG /D _WINDOWS /D _UNICODE /D UNICODE /Gm- /EHsc /MD /GS /Gy /fp:precise /Zc:wchar_t /Zc:forScope /Fo"RELEASE\\" /Fd"RELEASE\VC120.PDB" /Gd /TP /analyze- C:\USERS\RÉMY\DAE\GRAPHICS PROGRAMMING 2\OVERLORD\GP2_W4_STUDENTS_REVISED\OVERLORDPROJECT\MATERIALS\UBERMATERIAL.CPP
^C:\USERS\RÉMY\DAE\GRAPHICS PROGRAMMING 2\OVERLORD\GP2_W4_STUDENTS_REVISED\OVERLORDPROJECT\COURSEOBJECTS\SOURCE\TERRAINSCENE.CPP
/c /I../OverlordEngine/ /Zi /nologo /W4 /WX- /O2 /Oi /Oy- /GL /D WIN32 /D NDEBUG /D _WINDOWS /D _UNICODE /D UNICODE /Gm- /EHsc /MD /GS /Gy /fp:precise /Zc:wchar_t /Zc:forScope /Fo"RELEASE\\" /Fd"RELEASE\VC120.PDB" /Gd /TP /analyze- C:\USERS\RÉMY\DAE\GRAPHICS PROGRAMMING 2\OVERLORD\GP2_W4_STUDENTS_REVISED\OVERLORDPROJECT\COURSEOBJECTS\SOURCE\TERRAINSCENE.CPP
^C:\USERS\RÉMY\DAE\GRAPHICS PROGRAMMING 2\OVERLORD\GP2_W4_STUDENTS_REVISED\OVERLORDPROJECT\MAINGAME.CPP
/c /I../OverlordEngine/ /Zi /nologo /W4 /WX- /O2 /Oi /Oy- /GL /D WIN32 /D NDEBUG /D _WINDOWS /D _UNICODE /D UNICODE /Gm- /EHsc /MD /GS /Gy /fp:precise /Zc:wchar_t /Zc:forScope /Fo"RELEASE\\" /Fd"RELEASE\VC120.PDB" /Gd /TP /analyze- C:\USERS\RÉMY\DAE\GRAPHICS PROGRAMMING 2\OVERLORD\GP2_W4_STUDENTS_REVISED\OVERLORDPROJECT\MAINGAME.CPP
