^C:\USERS\RÉMY\DAE\GRAPHICS PROGRAMMING 2\OVERLORD\GP2_W4_STUDENTS_REVISED\OVERLORDENGINE\RELEASE\OVERLORDENGINE.LIB|C:\USERS\RÉMY\DAE\GRAPHICS PROGRAMMING 2\OVERLORD\GP2_W4_STUDENTS_REVISED\OVERLORDPROJECT\RELEASE\AMMO.OBJ|C:\USERS\RÉMY\DAE\GRAPHICS PROGRAMMING 2\OVERLORD\GP2_W4_STUDENTS_REVISED\OVERLORDPROJECT\RELEASE\BACKGROUNDMATERIAL.OBJ|C:\USERS\RÉMY\DAE\GRAPHICS PROGRAMMING 2\OVERLORD\GP2_W4_STUDENTS_REVISED\OVERLORDPROJECT\RELEASE\BALL.OBJ|C:\USERS\RÉMY\DAE\GRAPHICS PROGRAMMING 2\OVERLORD\GP2_W4_STUDENTS_REVISED\OVERLORDPROJECT\RELEASE\CHARACTER.OBJ|C:\USERS\RÉMY\DAE\GRAPHICS PROGRAMMING 2\OVERLORD\GP2_W4_STUDENTS_REVISED\OVERLORDPROJECT\RELEASE\CHARACTERTEST.OBJ|C:\USERS\RÉMY\DAE\GRAPHICS PROGRAMMING 2\OVERLORD\GP2_W4_STUDENTS_REVISED\OVERLORDPROJECT\RELEASE\COLORMATERIAL.OBJ|C:\USERS\RÉMY\DAE\GRAPHICS PROGRAMMING 2\OVERLORD\GP2_W4_STUDENTS_REVISED\OVERLORDPROJECT\RELEASE\CUBETERRAINMATERIAL.OBJ|C:\USERS\RÉMY\DAE\GRAPHICS PROGRAMMING 2\OVERLORD\GP2_W4_STUDENTS_REVISED\OVERLORDPROJECT\RELEASE\DIFFUSEMATERIAL.OBJ|C:\USERS\RÉMY\DAE\GRAPHICS PROGRAMMING 2\OVERLORD\GP2_W4_STUDENTS_REVISED\OVERLORDPROJECT\RELEASE\HARDWARESKINNINGSCENE.OBJ|C:\USERS\RÉMY\DAE\GRAPHICS PROGRAMMING 2\OVERLORD\GP2_W4_STUDENTS_REVISED\OVERLORDPROJECT\RELEASE\MAIN.OBJ|C:\USERS\RÉMY\DAE\GRAPHICS PROGRAMMING 2\OVERLORD\GP2_W4_STUDENTS_REVISED\OVERLORDPROJECT\RELEASE\MAINGAME.OBJ|C:\USERS\RÉMY\DAE\GRAPHICS PROGRAMMING 2\OVERLORD\GP2_W4_STUDENTS_REVISED\OVERLORDPROJECT\RELEASE\MODELTESTSCENE.OBJ|C:\USERS\RÉMY\DAE\GRAPHICS PROGRAMMING 2\OVERLORD\GP2_W4_STUDENTS_REVISED\OVERLORDPROJECT\RELEASE\PARTICLESCENE.OBJ|C:\USERS\RÉMY\DAE\GRAPHICS PROGRAMMING 2\OVERLORD\GP2_W4_STUDENTS_REVISED\OVERLORDPROJECT\RELEASE\PEDDLE.OBJ|C:\USERS\RÉMY\DAE\GRAPHICS PROGRAMMING 2\OVERLORD\GP2_W4_STUDENTS_REVISED\OVERLORDPROJECT\RELEASE\PICKSCENE.OBJ|C:\USERS\RÉMY\DAE\GRAPHICS PROGRAMMING 2\OVERLORD\GP2_W4_STUDENTS_REVISED\OVERLORDPROJECT\RELEASE\PONGSCENE.OBJ|C:\USERS\RÉMY\DAE\GRAPHICS PROGRAMMING 2\OVERLORD\GP2_W4_STUDENTS_REVISED\OVERLORDPROJECT\RELEASE\POSTBLUR.OBJ|C:\USERS\RÉMY\DAE\GRAPHICS PROGRAMMING 2\OVERLORD\GP2_W4_STUDENTS_REVISED\OVERLORDPROJECT\RELEASE\POSTDEPTH.OBJ|C:\USERS\RÉMY\DAE\GRAPHICS PROGRAMMING 2\OVERLORD\GP2_W4_STUDENTS_REVISED\OVERLORDPROJECT\RELEASE\POSTFOG.OBJ|C:\USERS\RÉMY\DAE\GRAPHICS PROGRAMMING 2\OVERLORD\GP2_W4_STUDENTS_REVISED\OVERLORDPROJECT\RELEASE\POSTGRAYSCALE.OBJ|C:\USERS\RÉMY\DAE\GRAPHICS PROGRAMMING 2\OVERLORD\GP2_W4_STUDENTS_REVISED\OVERLORDPROJECT\RELEASE\POSTPROCESSINGSCENE.OBJ|C:\USERS\RÉMY\DAE\GRAPHICS PROGRAMMING 2\OVERLORD\GP2_W4_STUDENTS_REVISED\OVERLORDPROJECT\RELEASE\POSTRADIALBLUR.OBJ|C:\USERS\RÉMY\DAE\GRAPHICS PROGRAMMING 2\OVERLORD\GP2_W4_STUDENTS_REVISED\OVERLORDPROJECT\RELEASE\RACECHARACTER.OBJ|C:\USERS\RÉMY\DAE\GRAPHICS PROGRAMMING 2\OVERLORD\GP2_W4_STUDENTS_REVISED\OVERLORDPROJECT\RELEASE\RACESCENE.OBJ|C:\USERS\RÉMY\DAE\GRAPHICS PROGRAMMING 2\OVERLORD\GP2_W4_STUDENTS_REVISED\OVERLORDPROJECT\RELEASE\SKINNEDDIFFUSEMATERIAL.OBJ|C:\USERS\RÉMY\DAE\GRAPHICS PROGRAMMING 2\OVERLORD\GP2_W4_STUDENTS_REVISED\OVERLORDPROJECT\RELEASE\SKYBOXMATERIAL.OBJ|C:\USERS\RÉMY\DAE\GRAPHICS PROGRAMMING 2\OVERLORD\GP2_W4_STUDENTS_REVISED\OVERLORDPROJECT\RELEASE\SKYBOXSCENE.OBJ|C:\USERS\RÉMY\DAE\GRAPHICS PROGRAMMING 2\OVERLORD\GP2_W4_STUDENTS_REVISED\OVERLORDPROJECT\RELEASE\SOFTWARESKINSCENE_1.OBJ|C:\USERS\RÉMY\DAE\GRAPHICS PROGRAMMING 2\OVERLORD\GP2_W4_STUDENTS_REVISED\OVERLORDPROJECT\RELEASE\SOFTWARESKINSCENE_2.OBJ|C:\USERS\RÉMY\DAE\GRAPHICS PROGRAMMING 2\OVERLORD\GP2_W4_STUDENTS_REVISED\OVERLORDPROJECT\RELEASE\SOFTWARESKINSCENE_3.OBJ|C:\USERS\RÉMY\DAE\GRAPHICS PROGRAMMING 2\OVERLORD\GP2_W4_STUDENTS_REVISED\OVERLORDPROJECT\RELEASE\SPIKEYMATERIAL.OBJ|C:\USERS\RÉMY\DAE\GRAPHICS PROGRAMMING 2\OVERLORD\GP2_W4_STUDENTS_REVISED\OVERLORDPROJECT\RELEASE\SPIKEYSCENE.OBJ|C:\USERS\RÉMY\DAE\GRAPHICS PROGRAMMING 2\OVERLORD\GP2_W4_STUDENTS_REVISED\OVERLORDPROJECT\RELEASE\SPRITEFONTTESTSCENE.OBJ|C:\USERS\RÉMY\DAE\GRAPHICS PROGRAMMING 2\OVERLORD\GP2_W4_STUDENTS_REVISED\OVERLORDPROJECT\RELEASE\SPRITETESTSCENE.OBJ|C:\USERS\RÉMY\DAE\GRAPHICS PROGRAMMING 2\OVERLORD\GP2_W4_STUDENTS_REVISED\OVERLORDPROJECT\RELEASE\TERRAINSCENE.OBJ|C:\USERS\RÉMY\DAE\GRAPHICS PROGRAMMING 2\OVERLORD\GP2_W4_STUDENTS_REVISED\OVERLORDPROJECT\RELEASE\TUTORIALSCENE.OBJ|C:\USERS\RÉMY\DAE\GRAPHICS PROGRAMMING 2\OVERLORD\GP2_W4_STUDENTS_REVISED\OVERLORDPROJECT\RELEASE\UBERMATERIAL.OBJ|C:\USERS\RÉMY\DAE\GRAPHICS PROGRAMMING 2\OVERLORD\GP2_W4_STUDENTS_REVISED\OVERLORDPROJECT\RELEASE\UBERSCENE.OBJ|C:\USERS\RÉMY\DAE\GRAPHICS PROGRAMMING 2\OVERLORD\GP2_W4_STUDENTS_REVISED\OVERLORDPROJECT\RELEASE\WALL.OBJ
C:\USERS\RéMY\DAE\GRAPHICS PROGRAMMING 2\OVERLORD\GP2_W4_STUDENTS_REVISED\BUILD\RELEASE\OVERLORDPROJECT.EXE
C:\USERS\RÉMY\DAE\GRAPHICS PROGRAMMING 2\OVERLORD\GP2_W4_STUDENTS_REVISED\BUILD\RELEASE\OVERLORDPROJECT.PDB
